<?xml version="1.0" encoding="UTF-8" standalone="no"?>
<!-- Created with Inkscape (http://www.inkscape.org/) -->

<svg
   width="48"
   height="48"
   viewBox="0 0 12.7 12.7"
   version="1.1"
   id="svg5"
   inkscape:version="1.2.2 (b0a8486541, 2022-12-01)"
   sodipodi:docname="info.svg"
   xmlns:inkscape="http://www.inkscape.org/namespaces/inkscape"
   xmlns:sodipodi="http://sodipodi.sourceforge.net/DTD/sodipodi-0.dtd"
   xmlns="http://www.w3.org/2000/svg"
   xmlns:svg="http://www.w3.org/2000/svg">
  <sodipodi:namedview
     id="namedview7"
     pagecolor="#ffffff"
     bordercolor="#000000"
     borderopacity="0.25"
     inkscape:showpageshadow="2"
     inkscape:pageopacity="0.0"
     inkscape:pagecheckerboard="0"
     inkscape:deskcolor="#d1d1d1"
     inkscape:document-units="mm"
     showgrid="false"
     inkscape:zoom="4.7572176"
     inkscape:cx="36.050485"
     inkscape:cy="33.843312"
     inkscape:window-width="1920"
     inkscape:window-height="1131"
     inkscape:window-x="0"
     inkscape:window-y="32"
     inkscape:window-maximized="1"
     inkscape:current-layer="layer1" />
  <defs
     id="defs2" />
  <g
     inkscape:label="Layer 1"
     inkscape:groupmode="layer"
     id="layer1">
    <path
       style="opacity:0.907409;fill:#4183a3;fill-opacity:1;stroke:none;stroke-width:0.732517;stroke-linecap:round;stroke-miterlimit:0.5"
       id="path234"
       sodipodi:type="arc"
       sodipodi:cx="6.4602342"
       sodipodi:cy="6.3928595"
       sodipodi:rx="5.6656394"
       sodipodi:ry="5.6109796"
       sodipodi:start="0"
       sodipodi:end="6.2816001"
       sodipodi:open="true"
       sodipodi:arc-type="arc"
       d="M 12.125874,6.3928595 A 5.6656394,5.6109796 0 0 1 6.4624795,12.003839 5.6656394,5.6109796 0 0 1 0.79459654,6.3973067 5.6656394,5.6109796 0 0 1 6.4534983,0.78188387 5.6656394,5.6109796 0 0 1 12.125866,6.3839649" />
    <text
       xml:space="preserve"
       style="font-size:12.7408px;font-family:'Nimbus Sans';-inkscape-font-specification:'Nimbus Sans';opacity:0.907409;fill:#4183a3;fill-opacity:1;stroke:none;stroke-width:2.10674;stroke-linecap:round;stroke-miterlimit:0.5"
       x="3.757601"
       y="12.450478"
       id="text1576"
       transform="scale(1.2370234,0.80839213)"><tspan
         sodipodi:role="line"
         id="tspan1574"
         style="fill:#ffffff;fill-opacity:1;stroke-width:2.10674"
         x="3.757601"
         y="12.450478">i</tspan></text>
  </g>
</svg>
